PUBLPOL 218X Assignment 2
…
    pivot_longer(ends_with("E"),
                 names_to = "variable",
                 values_to = "estimate") %>%
    left_join(acs_vars_2019_1yr %>% select(name, label),
                                    by = c("variable" = "name")) %>%
    select(-variable) %>%
    separate(label,
             into = c(NA, NA, "sex", "education"),
             sep = "!!") %>%
    filter(!is.na(education)) %>%
    mutate(race = census_race_labels[x])
    })
bay_educ_race

## # A tibble: 112 x 5
##    county estimate sex     education                       race       
##    <chr>     <dbl> <chr>   <chr>                           <chr>      
##  1 085       16211 Male:   Less than 9th grade             White Alone
##  2 085       14016 Male:   9th to 12th grade, no diploma   White Alone
##  3 085       41254 Male:   Regular high school diploma     White Alone
##  4 085        6148 Male:   GED or alternative credential   White Alone
##  5 085       51787 Male:   Some college, no degree         White Alone
##  6 085       18498 Male:   Associate's degree              White Alone
##  7 085       89757 Male:   Bachelor's degree               White Alone
##  8 085       80498 Male:   Graduate or professional degree White Alone
##  9 085       16758 Female: Less than 9th grade             White Alone
## 10 085       11593 Female: 9th to 12th grade, no diploma   White Alone
## #  with 102 more rows
…
